<svg xmlns="http://www.w3.org/2000/svg" width="48" height="48" fill="none" viewBox="0 0 48 48">
    <path fill="#1DA1F2" d="M0 24c0 13.255 10.745 24 24 24s24-10.745 24-24S37.255 0 24 0 0 10.745 0 24z"/>
    <path fill="#fff" d="M36 16.5c-.9.45-1.8.6-2.85.75 1.05-.6 1.8-1.5 2.1-2.7-.9.6-1.95.9-3.15 1.2-.9-.9-2.25-1.5-3.6-1.5-3.15 0-5.55 3-4.8 6-4.05-.15-7.65-2.1-10.2-5.1-1.35 2.25-.6 5.1 1.5 6.6-.75 0-1.5-.3-2.25-.6 0 2.25 1.65 4.35 3.9 4.95-.75.15-1.5.3-2.25.15.6 1.95 2.4 3.45 4.65 3.45-1.8 1.35-4.5 2.1-7.05 1.8 2.25 1.35 4.8 2.25 7.5 2.25 9.15 0 14.25-7.65 13.95-14.7 1.05-.6 1.95-1.5 2.55-2.55z"/>
</svg>
