<svg xmlns="http://www.w3.org/2000/svg" width="40" height="40" fill="none" viewBox="0 0 40 40">
    <g style="mix-blend-mode:multiply" fill="#198639" opacity=".3">
        <path d="M7.768 29.22l9.619-11.28c1.448-1.698 3.787-1.698 5.236 0l9.619 11.28c2.34 2.743.668 7.447-2.637 7.447H10.367c-3.305 0-4.939-4.704-2.6-7.447z"/>
        <rect width="26.667" height="5" x="6.667" y="3.333" rx="2.5"/>
    </g>
</svg>
