<svg xmlns="http://www.w3.org/2000/svg" width="24" height="24" fill="none" viewBox="0 0 24 24">
    <path fill="url(#paint0_linear)" d="M16.713 18H6.967v-1.934l4.6-4.902c.63-.69 1.096-1.292 1.396-1.807.306-.514.459-1.002.459-1.464 0-.632-.16-1.127-.479-1.485-.319-.364-.774-.547-1.367-.547-.638 0-1.142.222-1.514.664-.364.437-.546 1.013-.546 1.729H6.684c0-.866.205-1.657.615-2.373.416-.716 1.002-1.276 1.758-1.68.755-.41 1.611-.615 2.568-.615 1.465 0 2.6.352 3.408 1.055.814.703 1.22 1.696 1.22 2.978 0 .703-.181 1.42-.546 2.149-.365.729-.99 1.578-1.875 2.548L10.6 15.725h6.113V18z"/>
    <defs>
        <linearGradient id="paint0_linear" x1="5.632" x2="19.434" y1="23" y2=".896" gradientUnits="userSpaceOnUse">
            <stop stop-color="#FF363F"/>
            <stop offset="1" stop-color="#960009"/>
        </linearGradient>
    </defs>
</svg>
