<svg xmlns="http://www.w3.org/2000/svg" width="24" height="24" fill="none" viewBox="0 0 24 24">
    <path stroke="#E6E6E6" stroke-linecap="round" stroke-linejoin="round" stroke-width="2" d="M15 18l-6-6 6-6" opacity=".5"/>
</svg>
